{
  "name": "Entry",
  "plural": "entry",
  "base": "PersistedModel",
  "idInjection": true,
  "options": {
    "validateUpsert": true
  },
  "Timestamp": true,
  "properties": {
    "projectid": {
      "type": "number",
      "required": true
    },
    "userid": {
      "type": "number",
      "required": true
    },
    "status": {
      "type": "number",
      "required": true,
      "default": 1
    },
    "create_at": {
      "type": "date",
      "defaultFn": "now"
    },
    "enterystatus": {
      "type": "string",
      "required": true
    }
  },
  "validations": [],
  "relations": {},
  "acls": [],
  "methods": {}
}
